{
  "data": [
    {
      "month": 0,
      "maleHeight": 49.9,
      "maleWeight": 3.3,
      "femaleHeight": 49.1,
      "femaleWeight": 3.2,
      "createdAt": null,
      "updatedAt": null
    },
    {
      "month": 1,
      "maleHeight": 54.7,
      "maleWeight": 4.5,
      "femaleHeight": 53.7,
      "femaleWeight": 4.2,
      "createdAt": null,
      "updatedAt": null
    },
    {
      "month": 3,
      "maleHeight": 61.4,
      "maleWeight": 6.4,
      "femaleHeight": 59.8,
      "femaleWeight": 5.8,
      "createdAt": null,
      "updatedAt": null
    },
    {
      "month": 2,
      "maleHeight": 58.4,
      "maleWeight": 5.6,
      "femaleHeight": 57.1,
      "femaleWeight": 5.1,
      "createdAt": null,
      "updatedAt": null
    },
    {
      "month": 5,
      "maleHeight": 65.9,
      "maleWeight": 7.5,
      "femaleHeight": 64,
      "femaleWeight": 6.9,
      "createdAt": null,
      "updatedAt": null
    },
    {
      "month": 4,
      "maleHeight": 63.9,
      "maleWeight": 7,
      "femaleHeight": 62.1,
      "femaleWeight": 6.4,
      "createdAt": null,
      "updatedAt": null
    },
    {
      "month": 7,
      "maleHeight": 69.2,
      "maleWeight": 8.3,
      "femaleHeight": 67.3,
      "femaleWeight": 7.6,
      "createdAt": null,
      "updatedAt": null
    },
    {
      "month": 6,
      "maleHeight": 67.6,
      "maleWeight": 7.9,
      "femaleHeight": 65.7,
      "femaleWeight": 7.3,
      "createdAt": null,
      "updatedAt": null
    },
    {
      "month": 8,
      "maleHeight": 70.6,
      "maleWeight": 8.6,
      "femaleHeight": 68.7,
      "femaleWeight": 7.9,
      "createdAt": null,
      "updatedAt": null
    },
    {
      "month": 9,
      "maleHeight": 72,
      "maleWeight": 8.9,
      "femaleHeight": 70.1,
      "femaleWeight": 8.2,
      "createdAt": null,
      "updatedAt": null
    },
    {
      "month": 10,
      "maleHeight": 73.3,
      "maleWeight": 9.2,
      "femaleHeight": 71.5,
      "femaleWeight": 8.5,
      "createdAt": null,
      "updatedAt": null
    }
  ]
}
